{
  "server": {
    "port": 8000
  },
  "slides": {
    "root": "slides",
    "hsep": "^---$",
    "vsep": "^\\|\\|\\|$",
    "nsep": "^Note:"
  },
  "theme": "black",
  "stylesheets": [
    "/reveal/dist/reset.css",
    "/reveal/dist/reveal.css",
    "/reveal/plugin/highlight/monokai.css"
  ],
  "revealConfig": {
    "autoPlayMedia": null,
    "autoSlideStoppable": true,
    "backgroundTransition": "slide",
    "center": true,
    "controls": false,
    "controlsTutorial": false,
    "disableLayout": false,
    "fragmentInURL": false,
    "hashOneBasedIndex": true,
    "hash": true,
    "height": 720,
    "hideCursorTime": 3000,
    "hideInactiveCursor": true,
    "margin": 0.20,
    "mobileViewDistance": 2,
    "pdfSeparateFragments": false,
    "previewLinks": true,
    "progress": true,
    "respondToHashChanges": false,
    "showHiddenSlides": true,
    "showSlideNumber": "print",
    "slideNumber": "c/t",
    "transition": "slide",
    "transitionSpeed": "default",
    "viewDistance": 2,
    "width": 960,
    "katex": {
      "local": "/katex"
    }
  }
}
